id	20211129175557
create	20211129175557
modify	20211129175557
type	
title	Как сон влияет на иммунитет - fitLabs / Ирина Брехт
chars	UTF-8
icon	favicon.ico
source	https://fitlabs.ru/sleep-immunity/
comment	
lock	
